{
  "restaurants": [
    {
      "name": "Aroma",
      "image": "http://dummyimage.com/250x150/000/fff",
      "description": "Lorem ipsum dolor sit amet"
    },
    {
      "name": "Baracca",
      "image": "http://dummyimage.com/250x150/000/fff",
      "description": "Lorem ipsum dolor sit amet"
    },
    {
      "name": "Bricks",
      "image": "http://dummyimage.com/250x150/000/fff",
      "description": "Lorem ipsum dolor sit amet"
    },
    {
      "name": "Rochelle",
      "image": "http://dummyimage.com/250x150/000/fff",
      "description": "Lorem ipsum dolor sit amet"
    },
    {
      "name": "Twelve",
      "image": "http://dummyimage.com/250x150/000/fff",
      "description": "Lorem ipsum dolor sit amet"
    }
  ]
}